…
重复这张图

<img src="images/to_reproduce2.png" width="85%" />

数据在下面


```r
library(tidyverse)
raw_df <- read_rds(here::here("demo_data", "rude_behavior_in_airplane.rds")) 
raw_df
```

```
## # A tibble: 27 × 3
##    type                                           judgment          n
##    <chr>                                          <chr>         <dbl>
##  1 "Bring a baby"                                 Not rude        592
##  2 "Bring a baby"                                 Very Rude        75
##  3 "Bring a baby"                                 Somewhat rude   182
##  4 "Bring an unruly child"                        Not rude        147
##  5 "Bring an unruly child"                        Very Rude       351
##  6 "Bring an unruly child"                        Somewhat rude   351
##  7 "Recline your seat"                            Not rude        502
##  8 "Recline your seat"                            Very Rude        71
##  9 "Recline your seat"                            Somewhat rude   281
## 10 "Ask to switch seats \nto be closer to family" Not rude        705
## # ℹ 17 more rows
```
…
