第 13 章 数据规整1 | R编程与作图
…
用pivot_longer()函数，

plant_record %>% 
  tidyr::pivot_longer(
    cols = !day,
    names_to = c("species", "parameter"),
    names_pattern = "(.*)_(.*)",
    values_to = "value"
)

## # A tibble: 45 × 4
##      day species parameter value
##    <int> <chr>   <chr>     <dbl>
##  1     1 A       height      1.1
##  2     1 A       width       2.1
##  3     1 A       depth       3.1
##  4     1 B       height      4.1
##  5     1 B       width       5.1
##  6     1 B       depth       6.1
##  7     1 C       height      7.1
##  8     1 C       width       8.1
##  9     1 C       depth       9.1
## 10     2 A       height      1.2
## # ℹ 35 more rows
…
