第 12 章 dplyr进阶 | R编程与作图
…
12.3 简单回顾

12.3.1 选择”bill_“开始的列

penguins %>% select(bill_length_mm, bill_depth_mm)

penguins %>% select(starts_with("bill_"))

## # A tibble: 333 × 2
##    bill_length_mm bill_depth_mm
##             <dbl>         <dbl>
##  1           39.1          18.7
##  2           39.5          17.4
##  3           40.3          18  
##  4           36.7          19.3
##  5           39.3          20.6
##  6           38.9          17.8
##  7           39.2          19.6
##  8           41.1          17.6
##  9           38.6          21.2
## 10           34.6          21.1
## # ℹ 323 more rows

12.3.2 选择”_mm”结尾的列

penguins %>% select(bill_length_mm, bill_depth_mm, flipper_length_mm)

penguins %>% select(ends_with("_mm"))

## # A tibble: 333 × 3
##    bill_length_mm bill_depth_mm flipper_length_mm
##             <dbl>         <dbl>             <int>
##  1           39.1          18.7               181
##  2           39.5          17.4               186
##  3           40.3          18                 195
##  4           36.7          19.3               193
##  5           39.3          20.6               190
##  6           38.9          17.8               181
##  7           39.2          19.6               195
##  8           41.1          17.6               182
##  9           38.6          21.2               191
## 10           34.6          21.1               198
## # ℹ 323 more rows

12.3.3 选择含有”length”的列

penguins %>% select(bill_length_mm, flipper_length_mm)

penguins %>% select(contains("length"))

## # A tibble: 333 × 2
##    bill_length_mm flipper_length_mm
##             <dbl>             <int>
##  1           39.1               181
##  2           39.5               186
##  3           40.3               195
##  4           36.7               193
##  5           39.3               190
##  6           38.9               181
##  7           39.2               195
##  8           41.1               182
##  9           38.6               191
## 10           34.6               198
## # ℹ 323 more rows

12.3.4 选择数值型的列

penguins %>% select(where(is.numeric))

## # A tibble: 333 × 5
##    bill_length_mm bill_depth_mm flipper_length_mm body_mass_g  year
##             <dbl>         <dbl>             <int>       <int> <int>
##  1           39.1          18.7               181        3750  2007
##  2           39.5          17.4               186        3800  2007
##  3           40.3          18                 195        3250  2007
##  4           36.7          19.3               193        3450  2007
##  5           39.3          20.6               190        3650  2007
##  6           38.9          17.8               181        3625  2007
##  7           39.2          19.6               195        4675  2007
##  8           41.1          17.6               182        3200  2007
##  9           38.6          21.2               191        3800  2007
## 10           34.6          21.1               198        4400  2007
## # ℹ 323 more rows

12.3.5 选择字符串类型的列

penguins %>% select(where(is.character))

## # A tibble: 333 × 0

12.3.6 选择字符串类型以外的列

penguins %>% select(!where(is.character))

## # A tibble: 333 × 8
##    species island    bill_length_mm bill_depth_mm flipper_length_mm body_mass_g
##    <fct>   <fct>              <dbl>         <dbl>             <int>       <int>
##  1 Adelie  Torgersen           39.1          18.7               181        3750
##  2 Adelie  Torgersen           39.5          17.4               186        3800
##  3 Adelie  Torgersen           40.3          18                 195        3250
##  4 Adelie  Torgersen           36.7          19.3               193        3450
##  5 Adelie  Torgersen           39.3          20.6               190        3650
##  6 Adelie  Torgersen           38.9          17.8               181        3625
##  7 Adelie  Torgersen           39.2          19.6               195        4675
##  8 Adelie  Torgersen           41.1          17.6               182        3200
##  9 Adelie  Torgersen           38.6          21.2               191        3800
## 10 Adelie  Torgersen           34.6          21.1               198        4400
## # ℹ 323 more rows
## # ℹ 2 more variables: sex <fct>, year <int>

12.3.7 可以用多种组合来选择

penguins %>% select(species, starts_with("bill_"))

## # A tibble: 333 × 3
##    species bill_length_mm bill_depth_mm
##    <fct>            <dbl>         <dbl>
##  1 Adelie            39.1          18.7
##  2 Adelie            39.5          17.4
##  3 Adelie            40.3          18  
##  4 Adelie            36.7          19.3
##  5 Adelie            39.3          20.6
##  6 Adelie            38.9          17.8
##  7 Adelie            39.2          19.6
##  8 Adelie            41.1          17.6
##  9 Adelie            38.6          21.2
## 10 Adelie            34.6          21.1
## # ℹ 323 more rows
…
is.na
is a missing value (NA)

!is.na
is not a missing value

&
and

|
or

penguins %>% filter(sex == "male")

## # A tibble: 168 × 8
##    species island    bill_length_mm bill_depth_mm flipper_length_mm body_mass_g
##    <fct>   <fct>              <dbl>         <dbl>             <int>       <int>
##  1 Adelie  Torgersen           39.1          18.7               181        3750
##  2 Adelie  Torgersen           39.3          20.6               190        3650
##  3 Adelie  Torgersen           39.2          19.6               195        4675
##  4 Adelie  Torgersen           38.6          21.2               191        3800
##  5 Adelie  Torgersen           34.6          21.1               198        4400
##  6 Adelie  Torgersen           42.5          20.7               197        4500
##  7 Adelie  Torgersen           46            21.5               194        4200
##  8 Adelie  Biscoe              37.7          18.7               180        3600
##  9 Adelie  Biscoe              38.2          18.1               185        3950
## 10 Adelie  Biscoe              38.8          17.2               180        3800
## # ℹ 158 more rows
## # ℹ 2 more variables: sex <fct>, year <int>

penguins %>% filter(species %in% c("Adelie", "Gentoo"))

## # A tibble: 265 × 8
##    species island    bill_length_mm bill_depth_mm flipper_length_mm body_mass_g
##    <fct>   <fct>              <dbl>         <dbl>             <int>       <int>
##  1 Adelie  Torgersen           39.1          18.7               181        3750
##  2 Adelie  Torgersen           39.5          17.4               186        3800
##  3 Adelie  Torgersen           40.3          18                 195        3250
##  4 Adelie  Torgersen           36.7          19.3               193        3450
##  5 Adelie  Torgersen           39.3          20.6               190        3650
##  6 Adelie  Torgersen           38.9          17.8               181        3625
##  7 Adelie  Torgersen           39.2          19.6               195        4675
##  8 Adelie  Torgersen           41.1          17.6               182        3200
##  9 Adelie  Torgersen           38.6          21.2               191        3800
## 10 Adelie  Torgersen           34.6          21.1               198        4400
## # ℹ 255 more rows
## # ℹ 2 more variables: sex <fct>, year <int>

penguins %>%
  filter(species == "Adelie" &  bill_length_mm > 40)

## # A tibble: 50 × 8
##    species island    bill_length_mm bill_depth_mm flipper_length_mm body_mass_g
##    <fct>   <fct>              <dbl>         <dbl>             <int>       <int>
##  1 Adelie  Torgersen           40.3          18                 195        3250
##  2 Adelie  Torgersen           41.1          17.6               182        3200
##  3 Adelie  Torgersen           42.5          20.7               197        4500
##  4 Adelie  Torgersen           46            21.5               194        4200
##  5 Adelie  Biscoe              40.6          18.6               183        3550
##  6 Adelie  Biscoe              40.5          17.9               187        3200
##  7 Adelie  Biscoe              40.5          18.9               180        3950
##  8 Adelie  Dream               40.9          18.9               184        3900
##  9 Adelie  Dream               42.2          18.5               180        3550
## 10 Adelie  Dream               40.8          18.4               195        3900
## # ℹ 40 more rows
## # ℹ 2 more variables: sex <fct>, year <int>

penguins %>%
  filter(species == "Adelie", bill_length_mm > 40)

## # A tibble: 50 × 8
##    species island    bill_length_mm bill_depth_mm flipper_length_mm body_mass_g
##    <fct>   <fct>              <dbl>         <dbl>             <int>       <int>
##  1 Adelie  Torgersen           40.3          18                 195        3250
##  2 Adelie  Torgersen           41.1          17.6               182        3200
##  3 Adelie  Torgersen           42.5          20.7               197        4500
##  4 Adelie  Torgersen           46            21.5               194        4200
##  5 Adelie  Biscoe              40.6          18.6               183        3550
##  6 Adelie  Biscoe              40.5          17.9               187        3200
##  7 Adelie  Biscoe              40.5          18.9               180        3950
##  8 Adelie  Dream               40.9          18.9               184        3900
##  9 Adelie  Dream               42.2          18.5               180        3550
## 10 Adelie  Dream               40.8          18.4               195        3900
## # ℹ 40 more rows
## # ℹ 2 more variables: sex <fct>, year <int>
…
## [1] 7

mean(c(1, 2, NA, 4), na.rm = TRUE)

## [1] 2.333333

12.4.7 寻找企鹅中的胖子

penguins %>% 
  mutate(
    body = if_else(body_mass_g > 4200, "you are fat", "you are fine")
)

## # A tibble: 333 × 9
##    species island    bill_length_mm bill_depth_mm flipper_length_mm body_mass_g
##    <fct>   <fct>              <dbl>         <dbl>             <int>       <int>
##  1 Adelie  Torgersen           39.1          18.7               181        3750
##  2 Adelie  Torgersen           39.5          17.4               186        3800
##  3 Adelie  Torgersen           40.3          18                 195        3250
##  4 Adelie  Torgersen           36.7          19.3               193        3450
##  5 Adelie  Torgersen           39.3          20.6               190        3650
##  6 Adelie  Torgersen           38.9          17.8               181        3625
##  7 Adelie  Torgersen           39.2          19.6               195        4675
##  8 Adelie  Torgersen           41.1          17.6               182        3200
##  9 Adelie  Torgersen           38.6          21.2               191        3800
## 10 Adelie  Torgersen           34.6          21.1               198        4400
## # ℹ 323 more rows
## # ℹ 3 more variables: sex <fct>, year <int>, body <chr>
…
12.4.8 给企鹅身材分类

penguins %>% 
  mutate(
   body = case_when(
     body_mass_g < 3500                       ~ "best",
     body_mass_g >= 3500 & body_mass_g < 4500 ~ "good",
     body_mass_g >= 4500 & body_mass_g < 5500 ~ "general",
     TRUE                                     ~ "other"
  )
)

## # A tibble: 333 × 9
##    species island    bill_length_mm bill_depth_mm flipper_length_mm body_mass_g
##    <fct>   <fct>              <dbl>         <dbl>             <int>       <int>
##  1 Adelie  Torgersen           39.1          18.7               181        3750
##  2 Adelie  Torgersen           39.5          17.4               186        3800
##  3 Adelie  Torgersen           40.3          18                 195        3250
##  4 Adelie  Torgersen           36.7          19.3               193        3450
##  5 Adelie  Torgersen           39.3          20.6               190        3650
##  6 Adelie  Torgersen           38.9          17.8               181        3625
##  7 Adelie  Torgersen           39.2          19.6               195        4675
##  8 Adelie  Torgersen           41.1          17.6               182        3200
##  9 Adelie  Torgersen           38.6          21.2               191        3800
## 10 Adelie  Torgersen           34.6          21.1               198        4400
## # ℹ 323 more rows
## # ℹ 3 more variables: sex <fct>, year <int>, body <chr>

随堂练习：按嘴峰长度分成A, B, C, D 4个等级

penguins %>% 
  mutate(
    degree = case_when(
      bill_length_mm < 35                        ~ "A",
      bill_length_mm >= 35 & bill_length_mm < 45 ~ "B",
      bill_length_mm >= 45 & bill_length_mm < 55 ~ "C",
      TRUE                                       ~ "D"
  )
)

## # A tibble: 333 × 9
##    species island    bill_length_mm bill_depth_mm flipper_length_mm body_mass_g
##    <fct>   <fct>              <dbl>         <dbl>             <int>       <int>
##  1 Adelie  Torgersen           39.1          18.7               181        3750
##  2 Adelie  Torgersen           39.5          17.4               186        3800
##  3 Adelie  Torgersen           40.3          18                 195        3250
##  4 Adelie  Torgersen           36.7          19.3               193        3450
##  5 Adelie  Torgersen           39.3          20.6               190        3650
##  6 Adelie  Torgersen           38.9          17.8               181        3625
##  7 Adelie  Torgersen           39.2          19.6               195        4675
##  8 Adelie  Torgersen           41.1          17.6               182        3200
##  9 Adelie  Torgersen           38.6          21.2               191        3800
## 10 Adelie  Torgersen           34.6          21.1               198        4400
## # ℹ 323 more rows
## # ℹ 3 more variables: sex <fct>, year <int>, degree <chr>
…
c(1, TRUE, FALSE)

## [1] 1 1 0

c(TRUE, TRUE, FALSE) %>% sum()

## [1] 2

随堂练习：补全下面代码，求嘴峰长度大于40mm的占比？

penguins %>% 
  mutate(is_bigger40 = bill_length_mm > 40)

## # A tibble: 333 × 9
##    species island    bill_length_mm bill_depth_mm flipper_length_mm body_mass_g
##    <fct>   <fct>              <dbl>         <dbl>             <int>       <int>
##  1 Adelie  Torgersen           39.1          18.7               181        3750
##  2 Adelie  Torgersen           39.5          17.4               186        3800
##  3 Adelie  Torgersen           40.3          18                 195        3250
##  4 Adelie  Torgersen           36.7          19.3               193        3450
##  5 Adelie  Torgersen           39.3          20.6               190        3650
##  6 Adelie  Torgersen           38.9          17.8               181        3625
##  7 Adelie  Torgersen           39.2          19.6               195        4675
##  8 Adelie  Torgersen           41.1          17.6               182        3200
##  9 Adelie  Torgersen           38.6          21.2               191        3800
## 10 Adelie  Torgersen           34.6          21.1               198        4400
## # ℹ 323 more rows
## # ℹ 3 more variables: sex <fct>, year <int>, is_bigger40 <lgl>
…
across(.cols = everything(), .fns = NULL, ..., .names = NULL)

用在 mutate() 和summarise() 函数里面

across() 对多列执行相同的函数操作，返回数据框

12.5.2 数据中心化

penguins %>%
  mutate(
    bill_length_mm = bill_length_mm - mean(bill_length_mm),
    bill_depth_mm  = bill_depth_mm  - mean(bill_depth_mm)
    )

## # A tibble: 333 × 8
##    species island    bill_length_mm bill_depth_mm flipper_length_mm body_mass_g
##    <fct>   <fct>              <dbl>         <dbl>             <int>       <int>
##  1 Adelie  Torgersen          -4.89         1.54                181        3750
##  2 Adelie  Torgersen          -4.49         0.235               186        3800
##  3 Adelie  Torgersen          -3.69         0.835               195        3250
##  4 Adelie  Torgersen          -7.29         2.14                193        3450
##  5 Adelie  Torgersen          -4.69         3.44                190        3650
##  6 Adelie  Torgersen          -5.09         0.635               181        3625
##  7 Adelie  Torgersen          -4.79         2.44                195        4675
##  8 Adelie  Torgersen          -2.89         0.435               182        3200
##  9 Adelie  Torgersen          -5.39         4.04                191        3800
## 10 Adelie  Torgersen          -9.39         3.94                198        4400
## # ℹ 323 more rows
## # ℹ 2 more variables: sex <fct>, year <int>

更清晰的办法

centralized <- function(x) {
  x - mean(x)
}

penguins %>%
  mutate(
    across(c(bill_length_mm, bill_depth_mm), centralized)
  )

## # A tibble: 333 × 8
##    species island    bill_length_mm bill_depth_mm flipper_length_mm body_mass_g
##    <fct>   <fct>              <dbl>         <dbl>             <int>       <int>
##  1 Adelie  Torgersen          -4.89         1.54                181        3750
##  2 Adelie  Torgersen          -4.49         0.235               186        3800
##  3 Adelie  Torgersen          -3.69         0.835               195        3250
##  4 Adelie  Torgersen          -7.29         2.14                193        3450
##  5 Adelie  Torgersen          -4.69         3.44                190        3650
##  6 Adelie  Torgersen          -5.09         0.635               181        3625
##  7 Adelie  Torgersen          -4.79         2.44                195        4675
##  8 Adelie  Torgersen          -2.89         0.435               182        3200
##  9 Adelie  Torgersen          -5.39         4.04                191        3800
## 10 Adelie  Torgersen          -9.39         3.94                198        4400
## # ℹ 323 more rows
## # ℹ 2 more variables: sex <fct>, year <int>

12.5.3 数据标准化

std <- function(x) {
  (x - mean(x, na.rm = TRUE)) / sd(x, na.rm = TRUE)
}

penguins %>%
  mutate(
    across(c(bill_length_mm, bill_depth_mm), std)
  )

## # A tibble: 333 × 8
##    species island    bill_length_mm bill_depth_mm flipper_length_mm body_mass_g
##    <fct>   <fct>              <dbl>         <dbl>             <int>       <int>
##  1 Adelie  Torgersen         -0.895         0.780               181        3750
##  2 Adelie  Torgersen         -0.822         0.119               186        3800
##  3 Adelie  Torgersen         -0.675         0.424               195        3250
##  4 Adelie  Torgersen         -1.33          1.08                193        3450
##  5 Adelie  Torgersen         -0.858         1.74                190        3650
##  6 Adelie  Torgersen         -0.931         0.323               181        3625
##  7 Adelie  Torgersen         -0.876         1.24                195        4675
##  8 Adelie  Torgersen         -0.529         0.221               182        3200
##  9 Adelie  Torgersen         -0.986         2.05                191        3800
## 10 Adelie  Torgersen         -1.72          2.00                198        4400
## # ℹ 323 more rows
## # ℹ 2 more variables: sex <fct>, year <int>
…
# using across() and purrr style
penguins %>%
  summarise(
    across(starts_with("bill_"), ~ (.x - mean(.x)) / sd(.x))
  )

## Warning: Returning more (or less) than 1 row per `summarise()` group was deprecated in
## dplyr 1.1.0.
## ℹ Please use `reframe()` instead.
## ℹ When switching from `summarise()` to `reframe()`, remember that `reframe()`
##   always returns an ungrouped data frame and adjust accordingly.
## Call `lifecycle::last_lifecycle_warnings()` to see where this warning was
## generated.

## # A tibble: 333 × 2
##    bill_length_mm bill_depth_mm
##             <dbl>         <dbl>
##  1         -0.895         0.780
##  2         -0.822         0.119
##  3         -0.675         0.424
##  4         -1.33          1.08 
##  5         -0.858         1.74 
##  6         -0.931         0.323
##  7         -0.876         1.24 
##  8         -0.529         0.221
##  9         -0.986         2.05 
## 10         -1.72          2.00 
## # ℹ 323 more rows
…
