第 16 章 简单数据框 | R编程与作图
…
read_csv()读取文件时，生成的直接就是tibble

read_csv("./demo_data/wages.csv")

## Rows: 1379 Columns: 6
## ── Column specification ────────────────────────────────────────────────────────
## Delimiter: ","
## chr (2): sex, race
## dbl (4): earn, height, ed, age
## 
## ℹ Use `spec()` to retrieve the full column specification for this data.
## ℹ Specify the column types or set `show_col_types = FALSE` to quiet this message.

## # A tibble: 1,379 × 6
##      earn height sex    race        ed   age
##     <dbl>  <dbl> <chr>  <chr>    <dbl> <dbl>
##  1 79571.   73.9 male   white       16    49
##  2 96397.   66.2 female white       16    62
##  3 48711.   63.8 female white       16    33
##  4 80478.   63.2 female other       16    95
##  5 82089.   63.1 female white       17    43
##  6 15313.   64.5 female white       15    30
##  7 47104.   61.5 female white       12    53
##  8 50960.   73.3 male   white       17    50
##  9  3213.   72.2 male   hispanic    15    25
## 10 42997.   72.4 male   white       12    30
## # ℹ 1,369 more rows
…
library(tidyverse)
library(palmerpenguins)
df <- penguins %>% 
  drop_na() %>% 
  select(species, bill_length_mm, bill_depth_mm, body_mass_g)
df

## # A tibble: 333 × 4
##    species bill_length_mm bill_depth_mm body_mass_g
##    <fct>            <dbl>         <dbl>       <int>
##  1 Adelie            39.1          18.7        3750
##  2 Adelie            39.5          17.4        3800
##  3 Adelie            40.3          18          3250
##  4 Adelie            36.7          19.3        3450
##  5 Adelie            39.3          20.6        3650
##  6 Adelie            38.9          17.8        3625
##  7 Adelie            39.2          19.6        4675
##  8 Adelie            41.1          17.6        3200
##  9 Adelie            38.6          21.2        3800
## 10 Adelie            34.6          21.1        4400
## # ℹ 323 more rows
…
tb

## # A tibble: 3 × 2
##   species   data              
##   <fct>     <list>            
## 1 Adelie    <tibble [146 × 3]>
## 2 Gentoo    <tibble [119 × 3]>
## 3 Chinstrap <tibble [68 × 3]>

nest() 为每种species创建了一个小的tibble， 每个小的tibble对应一个species

tb$data[[1]]

## # A tibble: 146 × 3
##    bill_length_mm bill_depth_mm body_mass_g
##             <dbl>         <dbl>       <int>
##  1           39.1          18.7        3750
##  2           39.5          17.4        3800
##  3           40.3          18          3250
##  4           36.7          19.3        3450
##  5           39.3          20.6        3650
##  6           38.9          17.8        3625
##  7           39.2          19.6        4675
##  8           41.1          17.6        3200
##  9           38.6          21.2        3800
## 10           34.6          21.1        4400
## # ℹ 136 more rows
…
tb

## # A tibble: 3 × 2
##   species   data              
##   <fct>     <list>            
## 1 Adelie    <tibble [146 × 3]>
## 2 Gentoo    <tibble [119 × 3]>
## 3 Chinstrap <tibble [68 × 3]>

这里把想要打开的列data，作为参数提供给unnest(cols = )

tb %>% 
  unnest(cols = data)

## # A tibble: 333 × 4
##    species bill_length_mm bill_depth_mm body_mass_g
##    <fct>            <dbl>         <dbl>       <int>
##  1 Adelie            39.1          18.7        3750
##  2 Adelie            39.5          17.4        3800
##  3 Adelie            40.3          18          3250
##  4 Adelie            36.7          19.3        3450
##  5 Adelie            39.3          20.6        3650
##  6 Adelie            38.9          17.8        3625
##  7 Adelie            39.2          19.6        4675
##  8 Adelie            41.1          17.6        3200
##  9 Adelie            38.6          21.2        3800
## 10 Adelie            34.6          21.1        4400
## # ℹ 323 more rows
…
