…
```r
df
```

```
## # A tibble: 1,846 × 3
##    dataset     x     y
##    <chr>   <dbl> <dbl>
##  1 dino     55.4  97.2
##  2 dino     51.5  96.0
##  3 dino     46.2  94.5
##  4 dino     42.8  91.4
##  5 dino     40.8  88.3
##  6 dino     38.7  84.9
##  7 dino     35.6  79.9
##  8 dino     33.1  77.6
##  9 dino     29.0  74.5
## 10 dino     26.2  71.4
## # ℹ 1,836 more rows
```
…
```r
gapdata
```

```
## # A tibble: 1,704 × 6
##    country     continent  year lifeExp      pop gdpPercap
##    <chr>       <chr>     <dbl>   <dbl>    <dbl>     <dbl>
##  1 Afghanistan Asia       1952    28.8  8425333      779.
##  2 Afghanistan Asia       1957    30.3  9240934      821.
##  3 Afghanistan Asia       1962    32.0 10267083      853.
##  4 Afghanistan Asia       1967    34.0 11537966      836.
##  5 Afghanistan Asia       1972    36.1 13079460      740.
##  6 Afghanistan Asia       1977    38.4 14880372      786.
##  7 Afghanistan Asia       1982    39.9 12881816      978.
##  8 Afghanistan Asia       1987    40.8 13867957      852.
##  9 Afghanistan Asia       1992    41.7 16317921      649.
## 10 Afghanistan Asia       1997    41.8 22227415      635.
## # ℹ 1,694 more rows
```
…
这是一种技巧，但我更推荐以下方法


```r
d1 <- gapdata %>%
  filter(country %in% jCountries) %>%
  group_by(country) %>%
  mutate(end_label = if_else(year == max(year), country, NA_character_))

d1
```

```
## # A tibble: 48 × 7
## # Groups:   country [4]
##    country  continent  year lifeExp      pop gdpPercap end_label
##    <chr>    <chr>     <dbl>   <dbl>    <dbl>     <dbl> <chr>    
##  1 Cambodia Asia       1952    39.4  4693836      368. <NA>     
##  2 Cambodia Asia       1957    41.4  5322536      434. <NA>     
##  3 Cambodia Asia       1962    43.4  6083619      497. <NA>     
##  4 Cambodia Asia       1967    45.4  6960067      523. <NA>     
##  5 Cambodia Asia       1972    40.3  7450606      422. <NA>     
##  6 Cambodia Asia       1977    31.2  6978607      525. <NA>     
##  7 Cambodia Asia       1982    51.0  7272485      624. <NA>     
##  8 Cambodia Asia       1987    53.9  8371791      684. <NA>     
##  9 Cambodia Asia       1992    55.8 10150094      682. <NA>     
## 10 Cambodia Asia       1997    56.5 11782962      734. <NA>     
## # ℹ 38 more rows
```
…
