…
有两种方式来创建tibble格式的数据 

- 1. 用`tibble`函数直接创建
- 2. 其他格式转化, 例如用read.csv读取的数据默认是dataframe格式，就可以使用as_tibble转换为tibble格式

下面你可以看到两者的区别：



```r
as_tibble(penguins)
```

```
## # A tibble: 344 × 8
##    species island    bill_length_mm bill_depth_mm flipper_length_mm body_mass_g
##    <chr>   <chr>              <dbl>         <dbl>             <dbl>       <dbl>
##  1 Adelie  Torgersen           39.1          18.7               181        3750
##  2 Adelie  Torgersen           39.5          17.4               186        3800
##  3 Adelie  Torgersen           40.3          18                 195        3250
##  4 Adelie  Torgersen           NA            NA                  NA          NA
##  5 Adelie  Torgersen           36.7          19.3               193        3450
##  6 Adelie  Torgersen           39.3          20.6               190        3650
##  7 Adelie  Torgersen           38.9          17.8               181        3625
##  8 Adelie  Torgersen           39.2          19.6               195        4675
##  9 Adelie  Torgersen           34.1          18.1               193        3475
## 10 Adelie  Torgersen           42            20.2               190        4250
## # ℹ 334 more rows
## # ℹ 2 more variables: sex <chr>, year <dbl>
```
…
### 选取列

下面两个有什么区别？


```r
select(penguins, species, sex, body_mass_g)
```

```
## # A tibble: 344 × 3
##    species sex    body_mass_g
##    <chr>   <chr>        <dbl>
##  1 Adelie  male          3750
##  2 Adelie  female        3800
##  3 Adelie  female        3250
##  4 Adelie  <NA>            NA
##  5 Adelie  female        3450
##  6 Adelie  male          3650
##  7 Adelie  female        3625
##  8 Adelie  male          4675
##  9 Adelie  <NA>          3475
## 10 Adelie  <NA>          4250
## # ℹ 334 more rows
```



```r
penguins %>%
  select(species, sex, body_mass_g)
```

```
## # A tibble: 344 × 3
##    species sex    body_mass_g
##    <chr>   <chr>        <dbl>
##  1 Adelie  male          3750
##  2 Adelie  female        3800
##  3 Adelie  female        3250
##  4 Adelie  <NA>            NA
##  5 Adelie  female        3450
##  6 Adelie  male          3650
##  7 Adelie  female        3625
##  8 Adelie  male          4675
##  9 Adelie  <NA>          3475
## 10 Adelie  <NA>          4250
## # ℹ 334 more rows
```
…
```r
penguins %>%
  select(species, sex, body_mass_g) %>%
  arrange(desc(body_mass_g))
```

```
## # A tibble: 344 × 3
##    species sex   body_mass_g
##    <chr>   <chr>       <dbl>
##  1 Gentoo  male         6300
##  2 Gentoo  male         6050
##  3 Gentoo  male         6000
##  4 Gentoo  male         6000
##  5 Gentoo  male         5950
##  6 Gentoo  male         5950
##  7 Gentoo  male         5850
##  8 Gentoo  male         5850
##  9 Gentoo  male         5850
## 10 Gentoo  male         5800
## # ℹ 334 more rows
```
…
<img src="images/hex/forcats.png" width="20%" style="display: block; margin: auto auto auto 0;" />

`forcats` 宏包主要用于分类变量和因子型变量，比如这里的 `species, island, sex`.


对于不是因子型的变量，比如这里 `year` 是数值型变量，我们也可以通过 `factor()` 函数 将它转换成因子型变量。


```r
penguins %>%
  mutate(year_factor = factor(year, levels = unique(year)))
```

```
## # A tibble: 344 × 9
##    species island    bill_length_mm bill_depth_mm flipper_length_mm body_mass_g
##    <chr>   <chr>              <dbl>         <dbl>             <dbl>       <dbl>
##  1 Adelie  Torgersen           39.1          18.7               181        3750
##  2 Adelie  Torgersen           39.5          17.4               186        3800
##  3 Adelie  Torgersen           40.3          18                 195        3250
##  4 Adelie  Torgersen           NA            NA                  NA          NA
##  5 Adelie  Torgersen           36.7          19.3               193        3450
##  6 Adelie  Torgersen           39.3          20.6               190        3650
##  7 Adelie  Torgersen           38.9          17.8               181        3625
##  8 Adelie  Torgersen           39.2          19.6               195        4675
##  9 Adelie  Torgersen           34.1          18.1               193        3475
## 10 Adelie  Torgersen           42            20.2               190        4250
## # ℹ 334 more rows
## # ℹ 3 more variables: sex <chr>, year <dbl>, year_factor <fct>
```


我们保存到新的数据集中，再看看有什么变化


```r
penguins_new <-
  penguins %>%
  mutate(year_factor = factor(year, levels = unique(year)))
penguins_new
```

```
## # A tibble: 344 × 9
##    species island    bill_length_mm bill_depth_mm flipper_length_mm body_mass_g
##    <chr>   <chr>              <dbl>         <dbl>             <dbl>       <dbl>
##  1 Adelie  Torgersen           39.1          18.7               181        3750
##  2 Adelie  Torgersen           39.5          17.4               186        3800
##  3 Adelie  Torgersen           40.3          18                 195        3250
##  4 Adelie  Torgersen           NA            NA                  NA          NA
##  5 Adelie  Torgersen           36.7          19.3               193        3450
##  6 Adelie  Torgersen           39.3          20.6               190        3650
##  7 Adelie  Torgersen           38.9          17.8               181        3625
##  8 Adelie  Torgersen           39.2          19.6               195        4675
##  9 Adelie  Torgersen           34.1          18.1               193        3475
## 10 Adelie  Torgersen           42            20.2               190        4250
## # ℹ 334 more rows
## # ℹ 3 more variables: sex <chr>, year <dbl>, year_factor <fct>
```
…
### 字符串转换


```r
penguins %>%
  select(species, island) %>%
  mutate(ISLAND = str_to_upper(island))
```

```
## # A tibble: 344 × 3
##    species island    ISLAND   
##    <chr>   <chr>     <chr>    
##  1 Adelie  Torgersen TORGERSEN
##  2 Adelie  Torgersen TORGERSEN
##  3 Adelie  Torgersen TORGERSEN
##  4 Adelie  Torgersen TORGERSEN
##  5 Adelie  Torgersen TORGERSEN
##  6 Adelie  Torgersen TORGERSEN
##  7 Adelie  Torgersen TORGERSEN
##  8 Adelie  Torgersen TORGERSEN
##  9 Adelie  Torgersen TORGERSEN
## 10 Adelie  Torgersen TORGERSEN
## # ℹ 334 more rows
```

### 字符串合并


```r
penguins %>%
  select(species, island) %>%
  mutate(ISLAND = str_to_upper(island)) %>%
  mutate(species_island = str_c(species, ISLAND, sep = "_"))
```

```
## # A tibble: 344 × 4
##    species island    ISLAND    species_island  
##    <chr>   <chr>     <chr>     <chr>           
##  1 Adelie  Torgersen TORGERSEN Adelie_TORGERSEN
##  2 Adelie  Torgersen TORGERSEN Adelie_TORGERSEN
##  3 Adelie  Torgersen TORGERSEN Adelie_TORGERSEN
##  4 Adelie  Torgersen TORGERSEN Adelie_TORGERSEN
##  5 Adelie  Torgersen TORGERSEN Adelie_TORGERSEN
##  6 Adelie  Torgersen TORGERSEN Adelie_TORGERSEN
##  7 Adelie  Torgersen TORGERSEN Adelie_TORGERSEN
##  8 Adelie  Torgersen TORGERSEN Adelie_TORGERSEN
##  9 Adelie  Torgersen TORGERSEN Adelie_TORGERSEN
## 10 Adelie  Torgersen TORGERSEN Adelie_TORGERSEN
## # ℹ 334 more rows
```
…
### 长表格变宽表格


```r
untidy_penguins <-
  penguins %>%
    pivot_wider(names_from = sex,
                values_from = body_mass_g)
untidy_penguins
```

```
## # A tibble: 344 × 9
##    species island    bill_length_mm bill_depth_mm flipper_length_mm  year  male
##    <chr>   <chr>              <dbl>         <dbl>             <dbl> <dbl> <dbl>
##  1 Adelie  Torgersen           39.1          18.7               181  2007  3750
##  2 Adelie  Torgersen           39.5          17.4               186  2007    NA
##  3 Adelie  Torgersen           40.3          18                 195  2007    NA
##  4 Adelie  Torgersen           NA            NA                  NA  2007    NA
##  5 Adelie  Torgersen           36.7          19.3               193  2007    NA
##  6 Adelie  Torgersen           39.3          20.6               190  2007  3650
##  7 Adelie  Torgersen           38.9          17.8               181  2007    NA
##  8 Adelie  Torgersen           39.2          19.6               195  2007  4675
##  9 Adelie  Torgersen           34.1          18.1               193  2007    NA
## 10 Adelie  Torgersen           42            20.2               190  2007    NA
## # ℹ 334 more rows
## # ℹ 2 more variables: female <dbl>, `NA` <dbl>
```


### 宽表格变长表格



```r
untidy_penguins %>%
  pivot_longer(cols = male:`NA`, 
               names_to = "sex",
               values_to = "body_mass_g")
```

```
## # A tibble: 1,032 × 8
##    species island    bill_length_mm bill_depth_mm flipper_length_mm  year sex   
##    <chr>   <chr>              <dbl>         <dbl>             <dbl> <dbl> <chr> 
##  1 Adelie  Torgersen           39.1          18.7               181  2007 male  
##  2 Adelie  Torgersen           39.1          18.7               181  2007 female
##  3 Adelie  Torgersen           39.1          18.7               181  2007 NA    
##  4 Adelie  Torgersen           39.5          17.4               186  2007 male  
##  5 Adelie  Torgersen           39.5          17.4               186  2007 female
##  6 Adelie  Torgersen           39.5          17.4               186  2007 NA    
##  7 Adelie  Torgersen           40.3          18                 195  2007 male  
##  8 Adelie  Torgersen           40.3          18                 195  2007 female
##  9 Adelie  Torgersen           40.3          18                 195  2007 NA    
## 10 Adelie  Torgersen           NA            NA                  NA  2007 male  
## # ℹ 1,022 more rows
## # ℹ 1 more variable: body_mass_g <dbl>
```
…
