第 21 章 ggplot2之主题设置 | R编程与作图
…
稍微做点数据整理

df <- mpg %>% 
  as_tibble() %>% 
  filter(class != "2seater", manufacturer %in% c("toyota", "volkswagen"))
df

## # A tibble: 61 × 11
##    manufacturer model      displ  year   cyl trans drv     cty   hwy fl    class
##    <chr>        <chr>      <dbl> <int> <int> <chr> <chr> <int> <int> <chr> <chr>
##  1 toyota       4runner 4…   2.7  1999     4 manu… 4        15    20 r     suv  
##  2 toyota       4runner 4…   2.7  1999     4 auto… 4        16    20 r     suv  
##  3 toyota       4runner 4…   3.4  1999     6 auto… 4        15    19 r     suv  
##  4 toyota       4runner 4…   3.4  1999     6 manu… 4        15    17 r     suv  
##  5 toyota       4runner 4…   4    2008     6 auto… 4        16    20 r     suv  
##  6 toyota       4runner 4…   4.7  2008     8 auto… 4        14    17 r     suv  
##  7 toyota       camry        2.2  1999     4 manu… f        21    29 r     mids…
##  8 toyota       camry        2.2  1999     4 auto… f        21    27 r     mids…
##  9 toyota       camry        2.4  2008     4 manu… f        21    31 r     mids…
## 10 toyota       camry        2.4  2008     4 auto… f        21    31 r     mids…
## # ℹ 51 more rows
…
