第 24 章 ggplot2之统计图层 | R编程与作图
…
你可能每天都在用ggplot，却用不到stat_*()函数，这样也可以胜任很多工作。事实上，因为我们仅仅只使用geom_*()函数，你会发现stat_*()是开发者才使用的深奥和神秘的部分，如果这样想，你可能怀疑你是否有必要了解这些stat_*()函数。

好吧，学习 STAT 最主要的原因

“Even though the data is tidy, it may not represent the values you want to display”

我们这里再用一个例子说明，假定我们有一数据框simple_data

simple_data <- tibble(group = factor(rep(c("A", "B"), each = 15)),
                      subject = 1:30,
                      score = c(rnorm(15, 40, 20), rnorm(15, 60, 10)))
simple_data

## # A tibble: 30 × 3
##    group subject score
##    <fct>   <int> <dbl>
##  1 A           1 45.9 
##  2 A           2 41.4 
##  3 A           3 35.1 
##  4 A           4 24.8 
##  5 A           5 48.7 
##  6 A           6 49.6 
##  7 A           7 44.7 
##  8 A           8 49.7 
##  9 A           9  9.03
## 10 A          10 56.7 
## # ℹ 20 more rows
…
