第 25 章 ggplot2之从图层到几何形状 | R编程与作图
…
25.21.1 测试

penguins %>% 
  distinct(bill_length_mm, bill_depth_mm)

## # A tibble: 329 × 2
##    bill_length_mm bill_depth_mm
##             <dbl>         <dbl>
##  1           39.1          18.7
##  2           39.5          17.4
##  3           40.3          18  
##  4           36.7          19.3
##  5           39.3          20.6
##  6           38.9          17.8
##  7           39.2          19.6
##  8           41.1          17.6
##  9           38.6          21.2
## 10           34.6          21.1
## # ℹ 319 more rows
…
