…
```r
temps_months
```

```
## # A tibble: 48 × 3
## # Groups:   location [4]
##    location  mean month
##    <fct>    <dbl> <fct>
##  1 Chicago   50.4 Apr  
##  2 Chicago   74.1 Aug  
##  3 Chicago   29   Dec  
##  4 Chicago   28.9 Feb  
##  5 Chicago   24.8 Jan  
##  6 Chicago   75.8 Jul  
##  7 Chicago   71.0 Jun  
##  8 Chicago   38.8 Mar  
##  9 Chicago   60.9 May  
## 10 Chicago   41.6 Nov  
## # ℹ 38 more rows
```
…
